%YAML 1.1
%TAG !u! tag:unity3d.com,2011:
--- !u!21 &2100000
Material:
  serializedVersion: 6
  m_ObjectHideFlags: 0
  m_CorrespondingSourceObject: {fileID: 0}
  m_PrefabInstance: {fileID: 0}
  m_PrefabAsset: {fileID: 0}
  m_Name: Pine01-Leaves01_Flat 1
  m_Shader: {fileID: 4800000, guid: 0daa94f23f43f498b822cfbfc22c6689, type: 3}
  m_ShaderKeywords: _ALPHABLEND_ON _CELPRIMARYMODE_SINGLE _GLOSSYREFLECTIONS_OFF
    _SPECULARHIGHLIGHTS_OFF _UNITYSHADOWMODE_NONE
  m_LightmapFlags: 4
  m_EnableInstancingVariants: 0
  m_DoubleSidedGI: 0
  m_CustomRenderQueue: -1
  stringTagMap: {}
  disabledShaderPasses: []
  m_SavedProperties:
    serializedVersion: 3
    m_TexEnvs:
    - _BumpMap:
        m_Texture: {fileID: 0}
        m_Scale: {x: 1, y: 1}
        m_Offset: {x: 0, y: 0}
    - _CelCurveTexture:
        m_Texture: {fileID: 0}
        m_Scale: {x: 1, y: 1}
        m_Offset: {x: 0, y: 0}
    - _CelStepTexture:
        m_Texture: {fileID: 0}
        m_Scale: {x: 1, y: 1}
        m_Offset: {x: 0, y: 0}
    - _DetailAlbedoMap:
        m_Texture: {fileID: 0}
        m_Scale: {x: 1, y: 1}
        m_Offset: {x: 0, y: 0}
    - _DetailMask:
        m_Texture: {fileID: 0}
        m_Scale: {x: 1, y: 1}
        m_Offset: {x: 0, y: 0}
    - _DetailNormalMap:
        m_Texture: {fileID: 0}
        m_Scale: {x: 1, y: 1}
        m_Offset: {x: 0, y: 0}
    - _EmissionMap:
        m_Texture: {fileID: 0}
        m_Scale: {x: 1, y: 1}
        m_Offset: {x: 0, y: 0}
    - _MainTex:
        m_Texture: {fileID: 2800000, guid: 9a70b4dd6be684cb49da3dff61eef401, type: 3}
        m_Scale: {x: 1, y: 1}
        m_Offset: {x: 0, y: 0}
    - _MetallicGlossMap:
        m_Texture: {fileID: 0}
        m_Scale: {x: 1, y: 1}
        m_Offset: {x: 0, y: 0}
    - _OcclusionMap:
        m_Texture: {fileID: 0}
        m_Scale: {x: 1, y: 1}
        m_Offset: {x: 0, y: 0}
    - _ParallaxMap:
        m_Texture: {fileID: 0}
        m_Scale: {x: 1, y: 1}
        m_Offset: {x: 0, y: 0}
    m_Floats:
    - _AlphaClip: 0
    - _Blend: 0
    - _BumpScale: 1
    - _CelExtraEnabled: 0
    - _CelNumSteps: 3
    - _CelPrimaryMode: 1
    - _Cull: 2
    - _Cutoff: 0.031
    - _DetailNormalMapScale: 1
    - _DstBlend: 10
    - _FlatRimEdgeSmoothness: 0.5
    - _FlatRimEnabled: 1
    - _FlatRimLightAlign: 0.5
    - _FlatRimSize: 0.5
    - _FlatShadowsEnabled: 1
    - _FlatSpecularEdgeSmoothness: 0.5
    - _FlatSpecularEnabled: 1
    - _FlatSpecularSize: 0.5
    - _Flatness: 1
    - _FlatnessExtra: 1
    - _FlatnessSecondary: 1
    - _GlossMapScale: 1
    - _Glossiness: 0.5
    - _GlossyReflections: 0
    - _GradientAngle: 0
    - _GradientCenterX: 0
    - _GradientCenterY: 0
    - _GradientEnabled: 0
    - _GradientEnd: 1
    - _GradientSize: 10
    - _GradientStart: 0
    - _LightContribution: 0.5
    - _LightmapDirectionPitch: 0
    - _LightmapDirectionYaw: 0
    - _Metallic: 0
    - _Mode: 2
    - _OcclusionStrength: 1
    - _OverrideLightmapDir: 0
    - _OverrideShadows: 1
    - _OverrideShadowsEnabled: 1
    - _Parallax: 0.02
    - _QueueOffset: 0
    - _RimEnabled: 0
    - _SecondaryColorEnabled: 1
    - _SelfShadingSize: 0.505
    - _SelfShadingSizeExtra: 0.5
    - _ShadowEdgeSize: 0
    - _ShadowEdgeSizeExtra: 0.05
    - _ShadowEdgeSmoothness: 0.5
    - _ShadowFalloff: 0.5
    - _SmoothnessTextureChannel: 0
    - _SpecularEnabled: 0
    - _SpecularHighlights: 0
    - _SrcBlend: 5
    - _Surface: 0
    - _TextureImpact: 1
    - _UVSec: 0
    - _UnityShadowMode: 0
    - _UnityShadowPower: 0.2
    - _UnityShadowSharpness: 1
    - _VertexColorsEnabled: 0
    - _ZWrite: 0
    m_Colors:
    - _Color: {r: 0.3018391, g: 0.34827587, b: 0.404, a: 1}
    - _ColorCelShadow: {r: 0.65, g: 0.65, b: 0.65, a: 1}
    - _ColorDim: {r: 0.3019608, g: 0.34901962, b: 0.40784314, a: 1}
    - _ColorDimCurve: {r: 0.85023, g: 0.85034, b: 0.85045, a: 0.85056}
    - _ColorDimExtra: {r: 0.85, g: 0.85, b: 0.85, a: 0.85}
    - _ColorDimSteps: {r: 0.85, g: 0.85, b: 0.85, a: 0.85}
    - _ColorGradient: {r: 0.65, g: 0.65, b: 0.65, a: 1}
    - _ColorSecondary: {r: 0, g: 0.48694158, b: 0.7075472, a: 1}
    - _ColorShadows: {r: 0.5, g: 0.5, b: 0.5, a: 1}
    - _EmissionColor: {r: 0, g: 0, b: 0, a: 1}
    - _FlatRimColor: {r: 0.65, g: 0.65, b: 0.65, a: 1}
    - _FlatSpecularColor: {r: 0.65, g: 0.65, b: 0.65, a: 1}
    - _LightmapDirection: {r: 0, g: 1, b: 0, a: 0}
    - _UnityShadowColor: {r: 0.4433962, g: 0.13176396, b: 0.13176396, a: 1}
  m_BuildTextureStacks: []
